RAM Codebook - 4 Data Analysis
…
# A tibble: 7 × 7
  value label          n per_responses per_respondents N_responses N_respondents
  <chr> <chr>      <dbl>         <dbl>           <dbl>       <dbl>         <int>
1 300   Religious…   525         0.148           0.525        3549          1000
2 999   Other        521         0.147           0.521        3549          1000
3 201   Family       520         0.147           0.52         3549          1000
4 203   Community    501         0.141           0.501        3549          1000
5 204   Community…   497         0.140           0.497        3549          1000
6 202   Friends      495         0.139           0.495        3549          1000
7 100   Government   490         0.138           0.49         3549          1000

# split it by admin
multi_response_odk(data=indicators_data,labelset=labels,id_string="HHAsstOthCBTRecName.",retain_empty = FALSE,group="ADMIN1Name")

# A tibble: 35 × 8
   ADMIN1Name value label            n per_responses per_respondents N_responses
   <chr>      <chr> <chr>        <dbl>         <dbl>           <dbl>       <dbl>
 1 Admin 1    999   Other          119         0.156           0.569         762
 2 Admin 1    203   Community      113         0.148           0.541         762
 3 Admin 1    204   Community l…   112         0.147           0.536         762
 4 Admin 1    300   Religious o…   107         0.140           0.512         762
 5 Admin 1    201   Family         106         0.139           0.507         762
 6 Admin 1    202   Friends        103         0.135           0.493         762
 7 Admin 1    100   Government     102         0.134           0.488         762
 8 Admin 2    300   Religious o…   121         0.160           0.555         755
 9 Admin 2    202   Friends        111         0.147           0.509         755
10 Admin 2    201   Family         108         0.143           0.495         755
# ℹ 25 more rows
# ℹ 1 more variable: N_respondents <int>

multi_response_odk(data=indicators_data,labelset=labels,multicolumn = "HHAsstOthCBTRecName",retain_empty = FALSE,group="ADMIN1Name",language="English (en)") %>%
  select(ADMIN1Name,Crop=label,n,`Percentage of Respondents`=per_respondents) %>%
    mutate(`Percentage of Respondents`=scales::percent(`Percentage of Respondents`))

# A tibble: 48 × 4
   ADMIN1Name Crop                       n `Percentage of Respondents`
   <chr>      <chr>                  <dbl> <chr>                      
 1 Admin 1    <NA>                     762 364.593%                   
 2 Admin 1    <NA>                     701 335.407%                   
 3 Admin 1    Other                    118 56.459%                    
 4 Admin 1    Community                113 54.067%                    
 5 Admin 1    Community leaders        112 53.589%                    
 6 Admin 1    Religious organization   107 51.196%                    
 7 Admin 1    Family                   106 50.718%                    
 8 Admin 1    Friends                  103 49.282%                    
 9 Admin 1    Government               102 48.804%                    
10 Admin 1    <NA>                       1 0.478%                     
# ℹ 38 more rows
…
